{
  "formatVersion": 1,
  "database": {
    "version": 9,
    "identityHash": "467d69556cce03d2e268613094dc75c8",
    "entities": [
      {
        "tableName": "map",
        "createSql": "CREATE TABLE IF NOT EXISTS `${TABLE_NAME}` (`name` TEXT NOT NULL, `path` TEXT NOT NULL, `minZoom` REAL NOT NULL, `maxZoom` REAL NOT NULL, `groupName` TEXT, PRIMARY KEY(`name`))",
        "fields": [
          {
            "fieldPath": "name",
            "columnName": "name",
            "affinity": "TEXT",
            "notNull": true
          },
          {
            "fieldPath": "path",
            "columnName": "path",
            "affinity": "TEXT",
            "notNull": true
          },
          {
            "fieldPath": "minZoom",
            "columnName": "minZoom",
            "affinity": "REAL",
            "notNull": true
          },
          {
            "fieldPath": "maxZoom",
            "columnName": "maxZoom",
            "affinity": "REAL",
            "notNull": true
          },
          {
            "fieldPath": "groupName",
            "columnName": "groupName",
            "affinity": "TEXT",
            "notNull": false
          }
        ],
        "primaryKey": {
          "autoGenerate": false,
          "columnNames": [
            "name"
          ]
        },
        "indices": [],
        "foreignKeys": []
      },
      {
        "tableName": "track",
        "createSql": "CREATE TABLE IF NOT EXISTS `${TABLE_NAME}` (`name` TEXT NOT NULL, `path` TEXT NOT NULL, `visible` INTEGER NOT NULL, `color` TEXT NOT NULL, `created` INTEGER NOT NULL, `updated` INTEGER NOT NULL, `id` INTEGER PRIMARY KEY AUTOINCREMENT NOT NULL)",
        "fields": [
          {
            "fieldPath": "name",
            "columnName": "name",
            "affinity": "TEXT",
            "notNull": true
          },
          {
            "fieldPath": "path",
            "columnName": "path",
            "affinity": "TEXT",
            "notNull": true
          },
          {
            "fieldPath": "visible",
            "columnName": "visible",
            "affinity": "INTEGER",
            "notNull": true
          },
          {
            "fieldPath": "color",
            "columnName": "color",
            "affinity": "TEXT",
            "notNull": true
          },
          {
            "fieldPath": "created",
            "columnName": "created",
            "affinity": "INTEGER",
            "notNull": true
          },
          {
            "fieldPath": "updated",
            "columnName": "updated",
            "affinity": "INTEGER",
            "notNull": true
          },
          {
            "fieldPath": "id",
            "columnName": "id",
            "affinity": "INTEGER",
            "notNull": true
          }
        ],
        "primaryKey": {
          "autoGenerate": true,
          "columnNames": [
            "id"
          ]
        },
        "indices": [],
        "foreignKeys": []
      },
      {
        "tableName": "user_action",
        "createSql": "CREATE TABLE IF NOT EXISTS `${TABLE_NAME}` (`id` INTEGER PRIMARY KEY AUTOINCREMENT NOT NULL, `track_id` INTEGER NOT NULL, `timestamp` INTEGER NOT NULL, `type` TEXT NOT NULL, FOREIGN KEY(`track_id`) REFERENCES `track`(`id`) ON UPDATE NO ACTION ON DELETE CASCADE )",
        "fields": [
          {
            "fieldPath": "id",
            "columnName": "id",
            "affinity": "INTEGER",
            "notNull": true
          },
          {
            "fieldPath": "trackId",
            "columnName": "track_id",
            "affinity": "INTEGER",
            "notNull": true
          },
          {
            "fieldPath": "timestamp",
            "columnName": "timestamp",
            "affinity": "INTEGER",
            "notNull": true
          },
          {
            "fieldPath": "type",
            "columnName": "type",
            "affinity": "TEXT",
            "notNull": true
          }
        ],
        "primaryKey": {
          "autoGenerate": true,
          "columnNames": [
            "id"
          ]
        },
        "indices": [
          {
            "name": "index_user_action_track_id",
            "unique": false,
            "columnNames": [
              "track_id"
            ],
            "orders": [],
            "createSql": "CREATE INDEX IF NOT EXISTS `index_user_action_track_id` ON `${TABLE_NAME}` (`track_id`)"
          }
        ],
        "foreignKeys": [
          {
            "table": "track",
            "onDelete": "CASCADE",
            "onUpdate": "NO ACTION",
            "columns": [
              "track_id"
            ],
            "referencedColumns": [
              "id"
            ]
          }
        ]
      },
      {
        "tableName": "preset",
        "createSql": "CREATE TABLE IF NOT EXISTS `${TABLE_NAME}` (`id` INTEGER PRIMARY KEY AUTOINCREMENT NOT NULL, `name` TEXT NOT NULL)",
        "fields": [
          {
            "fieldPath": "id",
            "columnName": "id",
            "affinity": "INTEGER",
            "notNull": true
          },
          {
            "fieldPath": "name",
            "columnName": "name",
            "affinity": "TEXT",
            "notNull": true
          }
        ],
        "primaryKey": {
          "autoGenerate": true,
          "columnNames": [
            "id"
          ]
        },
        "indices": [],
        "foreignKeys": []
      },
      {
        "tableName": "preset_map",
        "createSql": "CREATE TABLE IF NOT EXISTS `${TABLE_NAME}` (`presetId` INTEGER NOT NULL, `mapName` TEXT NOT NULL, `enable` INTEGER NOT NULL, `order` INTEGER NOT NULL, `visible` INTEGER NOT NULL, `alpha` REAL NOT NULL, PRIMARY KEY(`presetId`, `mapName`), FOREIGN KEY(`presetId`) REFERENCES `preset`(`id`) ON UPDATE NO ACTION ON DELETE CASCADE , FOREIGN KEY(`mapName`) REFERENCES `map`(`name`) ON UPDATE NO ACTION ON DELETE CASCADE )",
        "fields": [
          {
            "fieldPath": "presetId",
            "columnName": "presetId",
            "affinity": "INTEGER",
            "notNull": true
          },
          {
            "fieldPath": "mapName",
            "columnName": "mapName",
            "affinity": "TEXT",
            "notNull": true
          },
          {
            "fieldPath": "enable",
            "columnName": "enable",
            "affinity": "INTEGER",
            "notNull": true
          },
          {
            "fieldPath": "order",
            "columnName": "order",
            "affinity": "INTEGER",
            "notNull": true
          },
          {
            "fieldPath": "visible",
            "columnName": "visible",
            "affinity": "INTEGER",
            "notNull": true
          },
          {
            "fieldPath": "alpha",
            "columnName": "alpha",
            "affinity": "REAL",
            "notNull": true
          }
        ],
        "primaryKey": {
          "autoGenerate": false,
          "columnNames": [
            "presetId",
            "mapName"
          ]
        },
        "indices": [],
        "foreignKeys": [
          {
            "table": "preset",
            "onDelete": "CASCADE",
            "onUpdate": "NO ACTION",
            "columns": [
              "presetId"
            ],
            "referencedColumns": [
              "id"
            ]
          },
          {
            "table": "map",
            "onDelete": "CASCADE",
            "onUpdate": "NO ACTION",
            "columns": [
              "mapName"
            ],
            "referencedColumns": [
              "name"
            ]
          }
        ]
      }
    ],
    "views": [],
    "setupQueries": [
      "CREATE TABLE IF NOT EXISTS room_master_table (id INTEGER PRIMARY KEY,identity_hash TEXT)",
      "INSERT OR REPLACE INTO room_master_table (id,identity_hash) VALUES(42, '467d69556cce03d2e268613094dc75c8')"
    ]
  }
}